EESchema Schematic File Version 4
EELAYER 30 0
EELAYER END
$Descr A4 11693 8268
encoding utf-8
Sheet 1 1
Title ""
Date ""
Rev ""
Comp ""
Comment1 ""
Comment2 ""
Comment3 ""
Comment4 ""
$EndDescr
$Comp
L Connector:XLR3 X1
U 1 1 5F410EA3
P 7450 4850
F 0 "X1" H 7450 5305 50  0000 C CNN
F 1 "XLR-Female" H 7450 5214 50  0000 C CNN
F 2 "" H 7450 4850 50  0001 C CNN
F 3 " ~" H 7450 4850 50  0001 C CNN
F 4 "Input" H 7450 5123 50  0000 C CNN "Function"
	1    7450 4850
	-1   0    0    -1  
$EndComp
$Comp
L Connector:XLR3 X2
U 1 1 5F411441
P 5350 4850
F 0 "X2" H 5350 5305 50  0000 C CNN
F 1 "XLR-Male" H 5350 5214 50  0000 C CNN
F 2 "" H 5350 4850 50  0001 C CNN
F 3 " ~" H 5350 4850 50  0001 C CNN
F 4 "Output" H 5350 5123 50  0000 C CNN "Function"
	1    5350 4850
	1    0    0    -1  
$EndComp
$Comp
L Device:R R2
U 1 1 5F412E8F
P 6800 2700
F 0 "R2" H 6870 2746 50  0000 L CNN
F 1 "100Ω" H 6870 2655 50  0000 L CNN
F 2 "" V 6730 2700 50  0001 C CNN
F 3 "~" H 6800 2700 50  0001 C CNN
	1    6800 2700
	1    0    0    -1  
$EndComp
$Comp
L Device:R R4
U 1 1 5F4164E9
P 7100 3950
F 0 "R4" H 7170 3996 50  0000 L CNN
F 1 "100Ω" H 7170 3905 50  0000 L CNN
F 2 "" V 7030 3950 50  0001 C CNN
F 3 "~" H 7100 3950 50  0001 C CNN
	1    7100 3950
	1    0    0    -1  
$EndComp
Wire Wire Line
	6650 3750 7100 3750
Wire Wire Line
	7100 3750 7100 3800
Wire Wire Line
	6650 4150 7100 4150
Wire Wire Line
	7100 4150 7100 4100
Wire Wire Line
	5050 4850 5000 4850
Wire Wire Line
	5000 4850 5000 5350
Wire Wire Line
	5650 4850 5700 4850
Wire Wire Line
	5700 4850 5700 3850
Wire Wire Line
	5700 3850 6050 3850
Wire Wire Line
	5350 5150 5800 5150
Wire Wire Line
	5800 5150 5800 4250
Wire Wire Line
	5800 4250 6050 4250
Wire Wire Line
	6650 3950 6850 3950
Wire Wire Line
	7800 5350 7800 4850
Wire Wire Line
	7800 4850 7750 4850
Wire Wire Line
	5000 5350 7800 5350
Wire Wire Line
	6850 4850 7150 4850
Wire Wire Line
	6850 3950 6850 4850
Wire Wire Line
	6650 4350 6750 4350
Wire Wire Line
	6750 4350 6750 5150
Wire Wire Line
	6750 5150 7450 5150
$Comp
L power:GND #PWR01
U 1 1 5F41EC32
P 3750 2150
F 0 "#PWR01" H 3750 1900 50  0001 C CNN
F 1 "GND" V 3755 2022 50  0000 R CNN
F 2 "" H 3750 2150 50  0001 C CNN
F 3 "" H 3750 2150 50  0001 C CNN
	1    3750 2150
	0    -1   -1   0   
$EndComp
$Comp
L Device:D D2
U 1 1 5F4232F0
P 6350 2950
F 0 "D2" H 6350 3167 50  0000 C CNN
F 1 "D" H 6350 3076 50  0000 C CNN
F 2 "" H 6350 2950 50  0001 C CNN
F 3 "~" H 6350 2950 50  0001 C CNN
	1    6350 2950
	-1   0    0    -1  
$EndComp
$Comp
L Transistor_FET:BSS123 T1
U 1 1 5F425178
P 5050 3800
F 0 "T1" H 5254 3846 50  0000 L CNN
F 1 "BSS123" H 5254 3755 50  0000 L CNN
F 2 "Package_TO_SOT_SMD:SOT-23" H 5250 3725 50  0001 L CIN
F 3 "http://www.diodes.com/assets/Datasheets/ds30366.pdf" H 5050 3800 50  0001 L CNN
	1    5050 3800
	1    0    0    -1  
$EndComp
$Comp
L power:GND #PWR04
U 1 1 5F42AFB1
P 5150 4200
F 0 "#PWR04" H 5150 3950 50  0001 C CNN
F 1 "GND" H 5155 4027 50  0000 C CNN
F 2 "" H 5150 4200 50  0001 C CNN
F 3 "" H 5150 4200 50  0001 C CNN
	1    5150 4200
	1    0    0    -1  
$EndComp
Wire Wire Line
	5150 3600 5150 3450
Wire Wire Line
	5150 3450 5900 3450
Wire Wire Line
	5900 3450 5900 2950
Wire Wire Line
	5900 2950 6200 2950
Connection ~ 5900 3450
Wire Wire Line
	5900 3450 6050 3450
Wire Wire Line
	6500 2950 6800 2950
Wire Wire Line
	6800 2950 6800 3450
Wire Wire Line
	6800 3450 6650 3450
$Comp
L Device:R R5
U 1 1 5F42D00F
P 4800 4000
F 0 "R5" H 4731 3954 50  0000 R CNN
F 1 "10kΩ" H 4731 4045 50  0000 R CNN
F 2 "" V 4730 4000 50  0001 C CNN
F 3 "~" H 4800 4000 50  0001 C CNN
	1    4800 4000
	1    0    0    1   
$EndComp
$Comp
L power:GND #PWR03
U 1 1 5F42E5FB
P 4800 4200
F 0 "#PWR03" H 4800 3950 50  0001 C CNN
F 1 "GND" H 4805 4027 50  0000 C CNN
F 2 "" H 4800 4200 50  0001 C CNN
F 3 "" H 4800 4200 50  0001 C CNN
	1    4800 4200
	1    0    0    -1  
$EndComp
Wire Wire Line
	5150 4000 5150 4200
Wire Wire Line
	4800 4200 4800 4150
Wire Wire Line
	4800 3850 4800 3800
Wire Wire Line
	4800 3800 4850 3800
Connection ~ 4800 3800
Text Label 4250 3800 0    50   ~ 0
connect
Wire Wire Line
	4150 4200 4150 3700
$Comp
L Device:R R1
U 1 1 5F43EDAB
P 4150 2700
F 0 "R1" H 4220 2746 50  0000 L CNN
F 1 "100Ω" H 4220 2655 50  0000 L CNN
F 2 "" V 4080 2700 50  0001 C CNN
F 3 "~" H 4150 2700 50  0001 C CNN
	1    4150 2700
	1    0    0    -1  
$EndComp
Wire Wire Line
	4150 3700 4150 2850
Connection ~ 4150 3700
$Comp
L Device:D D1
U 1 1 5F41271E
P 3800 2500
F 0 "D1" H 3800 2717 50  0000 C CNN
F 1 "D" H 3800 2626 50  0000 C CNN
F 2 "" H 3800 2500 50  0001 C CNN
F 3 "~" H 3800 2500 50  0001 C CNN
	1    3800 2500
	-1   0    0    -1  
$EndComp
$Comp
L Connector:Jack-DC X4
U 1 1 5F411D71
P 3250 2350
F 0 "X4" H 3307 2765 50  0000 C CNN
F 1 "Jack-DC" H 3307 2674 50  0000 C CNN
F 2 "" H 3300 2310 50  0001 C CNN
F 3 "~" H 3300 2310 50  0001 C CNN
F 4 "9 .. 12 V" H 3307 2583 50  0000 C CNN "Voltage"
	1    3250 2350
	1    0    0    -1  
$EndComp
Wire Wire Line
	3550 2250 3600 2250
Wire Wire Line
	3600 2250 3600 2150
Wire Wire Line
	3600 2150 3750 2150
Wire Wire Line
	3550 2450 3600 2450
Wire Wire Line
	3600 2450 3600 2500
Wire Wire Line
	3600 2500 3650 2500
Wire Wire Line
	6800 2850 6800 2950
Connection ~ 6800 2950
Wire Wire Line
	6800 2500 5150 2500
Wire Wire Line
	6800 2550 6800 2500
$Comp
L Device:LED D3
U 1 1 5F44E5B2
P 5150 3200
F 0 "D3" V 5189 3082 50  0000 R CNN
F 1 "LED" V 5098 3082 50  0000 R CNN
F 2 "" H 5150 3200 50  0001 C CNN
F 3 "~" H 5150 3200 50  0001 C CNN
	1    5150 3200
	0    -1   -1   0   
$EndComp
$Comp
L Device:R R3
U 1 1 5F44F8BF
P 5150 2850
F 0 "R3" H 5220 2896 50  0000 L CNN
F 1 "TBD" H 5220 2805 50  0000 L CNN
F 2 "" V 5080 2850 50  0001 C CNN
F 3 "~" H 5150 2850 50  0001 C CNN
	1    5150 2850
	1    0    0    -1  
$EndComp
Wire Wire Line
	5150 3000 5150 3050
Wire Wire Line
	5150 3350 5150 3450
Connection ~ 5150 3450
Wire Wire Line
	5150 2700 5150 2500
Connection ~ 5150 2500
Wire Wire Line
	3950 2500 4150 2500
Wire Wire Line
	4150 2500 4150 2550
Connection ~ 4150 2500
Wire Wire Line
	4150 2500 4650 2500
Wire Wire Line
	4000 4200 4150 4200
Wire Wire Line
	3450 3800 4800 3800
Wire Wire Line
	4150 3700 3450 3700
Wire Wire Line
	3450 3900 3550 3900
Wire Wire Line
	3550 4200 3600 4200
Wire Wire Line
	3550 3900 3550 4200
$Comp
L Switch:SW_SPST SW1
U 1 1 5F422902
P 3800 4200
F 0 "SW1" H 3800 4435 50  0000 C CNN
F 1 "SW_SPST" H 3800 4344 50  0000 C CNN
F 2 "" H 3800 4200 50  0001 C CNN
F 3 "~" H 3800 4200 50  0001 C CNN
	1    3800 4200
	1    0    0    -1  
$EndComp
$Comp
L Connector:AudioJack2_SwitchT X3
U 1 1 5F410862
P 3250 3800
F 0 "X3" H 3282 4215 50  0000 C CNN
F 1 "6,3mm" H 3282 4124 50  0000 C CNN
F 2 "" H 3250 3800 50  0001 C CNN
F 3 "~" H 3250 3800 50  0001 C CNN
F 4 "External Switch" H 3282 4033 50  0000 C CNN "Function"
	1    3250 3800
	1    0    0    -1  
$EndComp
$Comp
L Device:CP_Small C1
U 1 1 5F42F77E
P 4650 2650
F 0 "C1" H 4738 2741 50  0000 L CNN
F 1 "10μF" H 4738 2650 50  0000 L CNN
F 2 "" H 4650 2650 50  0001 C CNN
F 3 "~" H 4650 2650 50  0001 C CNN
F 4 "16V" H 4738 2559 50  0000 L CNN "Voltage"
	1    4650 2650
	1    0    0    -1  
$EndComp
$Comp
L power:GND #PWR02
U 1 1 5F430CE2
P 4650 2800
F 0 "#PWR02" H 4650 2550 50  0001 C CNN
F 1 "GND" V 4655 2672 50  0000 R CNN
F 2 "" H 4650 2800 50  0001 C CNN
F 3 "" H 4650 2800 50  0001 C CNN
	1    4650 2800
	1    0    0    -1  
$EndComp
Wire Wire Line
	4650 2800 4650 2750
Wire Wire Line
	4650 2550 4650 2500
Connection ~ 4650 2500
Wire Wire Line
	4650 2500 5150 2500
$Comp
L Relay:G6H-2 REL1
U 1 1 5F413995
P 6350 3850
F 0 "REL1" V 5600 3850 50  0000 C CNN
F 1 "G6H-2" V 5700 3750 50  0000 C CNN
F 2 "" H 6350 3850 50  0001 C CNN
F 3 "http://cdn-reichelt.de/documents/datenblatt/C300/G6H%23OMR.pdf" H 6350 3850 50  0001 C CNN
F 4 "6V" V 5700 3950 50  0000 C CNN "Voltage"
	1    6350 3850
	0    1    1    0   
$EndComp
Text Notes 6850 3400 0    50   ~ 0
min 4.5V\nmax 12V
$EndSCHEMATC
